scene
{
    path = res/scenes/scene1.gpb

    ambientColor = 1, 1, 1

	node golfBall
	{
		material = res/demo.material#lambert2
		collisionObject = res/physics.physics#ball
	}

	node floor
	{
		material = res/demo.material#lambert2
		collisionObject = res/physics.physics#staticBox
	}

	node hole
	{
		material = res/demo.material#lambert2
	}

    physics
    {
        gravity = 0.0, -9.8, 0.0
    }
}