scene
{
	path = res/physics.gpb
	
	
	node floor
	{
		material = res/physics.material#floor
		collisionObject = res/physics.physics#staticBox
	}
	
	node wall01
	{
		material = res/physics.material#floor
		collisionObject = res/physics.physics#staticBox
	}
	
	node wall02
	{
		material = res/physics.material#floor
		collisionObject = res/physics.physics#staticBox
	}
	
	node wall03
	{
		material = res/physics.material#floor
		collisionObject = res/physics.physics#staticBox
	}
	
	node wall04
	{
		material = res/physics.material#floor
		collisionObject = res/physics.physics#staticBox
	}
	
	node box
	{
		material = res/physics.material#green
		collisionObject = res/physics.physics#box
	}
	
	node sphere
	{
		material = res/physics.material#red
		collisionObject = res/physics.physics#ball
	}
	
	node capsule
	{
		material = res/physics.material#blue
		collisionObject = res/physics.physics#capsule
	}
	
	physics
	{
		gravity = 0.0, -9.8, 0.0
	}
}
